sim_datasets
…
This creates 3 data sets with a 1st order carryover of 0, and a 2nd order carryover of 0.

data1 is tall, with all of the input vars, including random noise at each time point.

data2 is wide, with only subject_id, sequence, and fatigue score at each time point.

data2_long is the same as data2 but in long format.

Need to add treatment, period to use package.

Look at CrossCarry::Arterial data for example

CrossCarry::Arterial 

# A tibble: 360 × 5
   Subject Period Treatment Pressure  Time
     <dbl>  <dbl> <chr>        <dbl> <dbl>
 1       1      1 C              112   -30
 2       1      1 C              114   -15
 3       1      1 C               86    15
 4       1      1 C               86    30
 5       1      1 C               93    45
 6       1      1 C               90    60
 7       1      1 C              106    75
 8       1      1 C               91    90
 9       1      1 C               84   120
10       1      1 C              102   240
# ℹ 350 more rows
